Place,Name,Sex,BirthDate,Equipment,Division,BodyweightKg,WeightClassKg,Squat1Kg,Squat2Kg,Squat3Kg,Best3SquatKg,Bench1Kg,Bench2Kg,Bench3Kg,Best3BenchKg,Deadlift1Kg,Deadlift2Kg,Deadlift3Kg,Best3DeadliftKg,TotalKg,Event
1,Shelley Copp,F,1979-12-22,Raw,F_MR_1_ABPU,59.3,60,-105,105,115,115,60,65,-70,65,132.5,140,145,145,325,SBD
1,Mandy Watkins,F,1973-07-18,Raw,F_MR_3_ABPU,108.1,110,110,120,-132.5,120,-65,65,70,70,130,140,145,145,335,SBD
1,Isfahan Henderson,F,1965-04-02,Raw,F_MR_4_ABPU,75,75,62.5,-67.5,-72.5,62.5,40,-45,-45,40,80,90,-100,90,192.5,SBD
1,India Teague,F,2008-12-24,Wraps,F_TCR_1_ABPU,72.6,75,90,-100,110,110,55,57.5,60,60,110,120,130,130,300,SBD
1,Elisha Jenkins,F,2005-08-01,Wraps,F_TCR_3_ABPU,63.5,67.5,82.5,87.5,95,95,57.5,-62.5,-65,57.5,100,107.5,112.5,112.5,265,SBD
1,Khyley Hawkes,F,1992-11-17,Raw,F_OR_ABPU,115.4,110+,,,,,,,,,175,192.5,200,200,200,D
1,Oscar Cullen,M,2000-04-16,Raw,M_JR_ABPU,65.6,67.5,110,-120,120,120,85,-100,-100,85,140,150,-160,150,355,SBD
1,Reece Hillier,M,2002-10-14,Raw,M_JR_ABPU,89.9,90,85,95,105,105,-57.5,57.5,60,60,105,-110,-110,105,270,SBD
1,Steven Short #1,M,1970-10-23,Raw,M_MR_3_ABPU,85.8,90,190,210,215,215,120,130,-140,130,250,-262.5,,250,595,SBD
1,Nick Simpson #1,M,1971-05-15,Raw,M_MR_3_ABPU,100,100,150,160,180,180,150,160,-170,160,180,200,210,210,550,SBD
1,Stephen Kalisz,M,1955-04-23,Raw,M_MR_6_ABPU,89.4,90,-125,-125,140,140,-92.5,100,-110,100,150,165,-177.5,165,405,SBD
1,Bob Tollafield,M,1957-09-13,Raw,M_MR_6_ABPU,97.9,100,110,120,125,125,95,-102.5,-102.5,95,135,-150,150,150,370,SBD
1,Andrew Irving #1,M,1996-12-01,Raw,M_OR_ABPU,84.6,90,120,130,140,140,100,-107.5,-107.5,100,155,165,-175,165,405,SBD
2,Brett Richmond,Mx,1990-04-17,Raw,Mx_O_R_ABPU,90,90,80,100,110,110,65,70,75,75,130,140,150,150,335,SBD
1,George Tibbles,M,2006-12-13,Raw,M_TR_2_ABPU,74.9,75,120,130,140,140,80,82.5,85,85,150,160,170,170,395,SBD
1,Wesley Evans #1,M,1980-02-06,Wraps,M_MCR_1_ABPU,102.3,110,170,190,200,200,110,-120,120,120,182.5,205,215,215,535,SBD
1,Paul Newman #1,M,1971-02-02,Wraps,M_MCR_3_BPU,120.2,125,250,-260,,250,190,-200,-200,190,260,-270,,260,700,SBD
1,George Doneathy,M,1967-02-07,Wraps,M_MCR_4_BPU,164.4,140+,200,220,250,250,180,200,210,210,220,240,250,250,710,SBD
1,Danny Frith,M,1994-09-29,Wraps,M_OCR_BPU,97.4,100,-200,215,-225,215,137.5,145,147.5,147.5,275,300,-305,300,662.5,SBD
2,Nathan Spiller,M,1989-03-10,Wraps,M_OCR_BPU,90.6,100,200,210,,210,115,125,-132.5,125,235,-250,,235,570,SBD
1,Alex Kent #2,M,1993-09-02,Wraps,M_OCR_BPU,108.6,110,230,250,,250,180,190,200,200,265,285,-300,285,735,SBD
1,Mark Web,M,1989-02-28,Wraps,M_OCR_ABPU,88.7,90,180,200,-210,200,117.5,122.5,127.5,127.5,205,220,227.5,227.5,555,SBD
1,Paul Cunningham #2,M,2003-10-01,Wraps,M_TCR_3_ABPU,79.1,82.5,125,-127.5,135,135,80,-85,-85,80,150,160,167.5,167.5,382.5,SBD
1,Ricky Ransome,M,1958-03-12,Raw,M_MR_6_ABPU,94.1,100,,,,,110,-115,115,115,,,,,115,B
